{
	"id": "a5b6b1c0-9a74-4508-8b86-f21a6e867368",
	"schema": "https://metadata.datadrivendiscovery.org/schemas/v0/pipeline.json",
	"source": {
		"name": "Uchicago"
	},
	"created": "2018-02-28T09:42:27.443844Z",
	"context": "TESTING",
	"name": "CSmashClassification pipeline",
	"description": "CSmashClassification pipeline\n",
	"inputs": [
		{
			"name": "input dataset"
		}
	],
	"outputs": [
		{
			"name": "predictions",
			"data": "steps.1.produce"
		}
	],
	"steps": [
		{
			"type": "PRIMITIVE",
			"primitive": {
				"id": "4b42ce1e-9b98-4a25-b68e-fad13311eb65",
				"version": "0.3.0",
				"python_path": "d3m.primitives.data_transformation.dataset_to_dataframe.Common",
				"name": "Extract a DataFrame from a Dataset"
			},
			"arguments": {
				"inputs": {
					"type": "CONTAINER",
					"data": "inputs.0"
				}
			},
			"outputs": [
				{
					"id": "produce"
				}
			]
		},
		{
			"type": "PRIMITIVE",
			"primitive": {
				"id": "8e5fbab0-e257-42c3-80ac-a2f0a3cdb3e9",
				"version": "0.4.10",
				"python_path": "d3m.primitives.datasmash.d3m_CSmashClassification",
				"name": "datasmash.d3m_CSmashClassification"
			},
			"arguments": {
				"inputs": {
					"type": "CONTAINER",
					"data": "inputs.0"
				},
				"outputs": {
					"type": "CONTAINER",
					"data": "steps.0.produce"
				}
			},
			"outputs": [
				{
					"id": "produce"
				}
			]
		}
	]
}
