{
    "id":"3593fd1f-8907-4d85-8f93-92991796d74f",
    "schema":"https://metadata.datadrivendiscovery.org/schemas/v0/pipeline.json",
    "created":"2020-02-01T01:55:25.718556Z",
    "inputs":[
        {
            "name":"input dataset"
        }
    ],
    "outputs":[
        {
            "data":"steps.18.produce",
            "name":"predictions of input dataset"
        }
    ],
    "steps":[
        {
            "type":"PRIMITIVE",
            "primitive":{
                "id":"dsbox-featurizer-do-nothing-dataset-version",
                "version":"1.5.3",
                "python_path":"d3m.primitives.data_preprocessing.do_nothing_for_dataset.DSBOX",
                "name":"DSBox do-nothing primitive dataset version",
                "digest":"46bda32f7ab8bace3a35a0d008f9c4691b3e18e0908249bf0e47104c9cb3c619"
            },
            "arguments":{
                "inputs":{
                    "type":"CONTAINER",
                    "data":"inputs.0"
                }
            },
            "outputs":[
                {
                    "id":"produce"
                }
            ]
        },
        {
            "type":"PRIMITIVE",
            "primitive":{
                "id":"f31f8c1f-d1c5-43e5-a4b2-2ae4a761ef2e",
                "version":"0.2.0",
                "python_path":"d3m.primitives.data_transformation.denormalize.Common",
                "name":"Denormalize datasets",
                "digest":"6c1cc604302d7418145f405efe5ae124755cab6da2b66cb53240b74e2b140a1e"
            },
            "arguments":{
                "inputs":{
                    "type":"CONTAINER",
                    "data":"steps.0.produce"
                }
            },
            "outputs":[
                {
                    "id":"produce"
                }
            ]
        },
        {
            "type":"PRIMITIVE",
            "primitive":{
                "id":"4b42ce1e-9b98-4a25-b68e-fad13311eb65",
                "version":"0.3.0",
                "python_path":"d3m.primitives.data_transformation.dataset_to_dataframe.Common",
                "name":"Extract a DataFrame from a Dataset",
                "digest":"990784f527a78250fcab70af9714314490e91f9a5916eb38834d74e8c38f435b"
            },
            "arguments":{
                "inputs":{
                    "type":"CONTAINER",
                    "data":"steps.1.produce"
                }
            },
            "outputs":[
                {
                    "id":"produce"
                }
            ]
        },
        {
            "type":"PRIMITIVE",
            "primitive":{
                "id":"4503a4c6-42f7-45a1-a1d4-ed69699cf5e1",
                "version":"0.4.0",
                "python_path":"d3m.primitives.data_transformation.extract_columns_by_semantic_types.Common",
                "name":"Extracts columns by semantic type",
                "digest":"591d3ee40b266bda04fa345aeea7b56d81db182fb144cde164e02be019a05f10"
            },
            "arguments":{
                "inputs":{
                    "type":"CONTAINER",
                    "data":"steps.2.produce"
                }
            },
            "outputs":[
                {
                    "id":"produce"
                }
            ],
            "hyperparams":{
                "semantic_types":{
                    "type":"VALUE",
                    "data":[
                        "https://metadata.datadrivendiscovery.org/types/PrimaryKey",
                        "https://metadata.datadrivendiscovery.org/types/Attribute"
                    ]
                }
            }
        },
        {
            "type":"PRIMITIVE",
            "primitive":{
                "id":"b2612849-39e4-33ce-bfda-24f3e2cb1e93",
                "version":"1.5.3",
                "python_path":"d3m.primitives.schema_discovery.profiler.DSBOX",
                "name":"DSBox Profiler",
                "digest":"a7a5df92f04b14b3c1a62a48c6673748019d9c4ff3b3e1e38121bd6077e1abea"
            },
            "arguments":{
                "inputs":{
                    "type":"CONTAINER",
                    "data":"steps.3.produce"
                }
            },
            "outputs":[
                {
                    "id":"produce"
                }
            ]
        },
        {
            "type":"PRIMITIVE",
            "primitive":{
                "id":"dsbox-cleaning-featurizer",
                "version":"1.5.3",
                "python_path":"d3m.primitives.data_cleaning.cleaning_featurizer.DSBOX",
                "name":"DSBox Cleaning Featurizer",
                "digest":"7ff8d342f0ce8d0682c3ebb95f2c3bef203a00be270eebe6822d5ffcd247b636"
            },
            "arguments":{
                "inputs":{
                    "type":"CONTAINER",
                    "data":"steps.4.produce"
                }
            },
            "outputs":[
                {
                    "id":"produce"
                }
            ]
        },
        {
            "type":"PRIMITIVE",
            "primitive":{
                "id":"18f0bb42-6350-3753-8f2d-d1c3da70f279",
                "version":"1.5.3",
                "python_path":"d3m.primitives.data_preprocessing.encoder.DSBOX",
                "name":"ISI DSBox Data Encoder",
                "digest":"6c46bde20f9a2923d5ef7c1be5f877aac5e6bea160d083f2f5fb5135b0af92e9"
            },
            "arguments":{
                "inputs":{
                    "type":"CONTAINER",
                    "data":"steps.5.produce"
                }
            },
            "outputs":[
                {
                    "id":"produce"
                }
            ]
        },
        {
            "type":"PRIMITIVE",
            "primitive":{
                "id":"7ddf2fd8-2f7f-4e53-96a7-0d9f5aeecf93",
                "version":"1.5.3",
                "python_path":"d3m.primitives.data_transformation.to_numeric.DSBOX",
                "name":"ISI DSBox To Numeric DataFrame",
                "digest":"18d6dd82e165ca0c5313c5aa97386ba0215a88aa1016a9ca1924248800c1c156"
            },
            "arguments":{
                "inputs":{
                    "type":"CONTAINER",
                    "data":"steps.5.produce"
                }
            },
            "outputs":[
                {
                    "id":"produce"
                }
            ]
        },
        {
            "type":"PRIMITIVE",
            "primitive":{
                "id":"7894b699-61e9-3a50-ac9f-9bc510466667",
                "version":"1.5.3",
                "python_path":"d3m.primitives.data_preprocessing.mean_imputation.DSBOX",
                "name":"DSBox Mean Imputer",
                "digest":"63cb8856c1e9da6d459f6f30ec019a4be535068585e0b20343b84466557302e7"
            },
            "arguments":{
                "inputs":{
                    "type":"CONTAINER",
                    "data":"steps.7.produce"
                }
            },
            "outputs":[
                {
                    "id":"produce"
                }
            ]
        },
        {
            "type":"PRIMITIVE",
            "primitive":{
                "id":"dsbox-multi-table-feature-scaler",
                "version":"1.5.3",
                "python_path":"d3m.primitives.normalization.iqr_scaler.DSBOX",
                "name":"DSBox feature scaler",
                "digest":"ec89c7bd11645c6ff21f8b763b8f84824ab58a81286a287bf00a4a27bb7841f5"
            },
            "arguments":{
                "inputs":{
                    "type":"CONTAINER",
                    "data":"steps.8.produce"
                }
            },
            "outputs":[
                {
                    "id":"produce"
                }
            ]
        },
        {
            "type":"PRIMITIVE",
            "primitive":{
                "id":"dsbox-featurizer-do-nothing",
                "version":"1.5.3",
                "python_path":"d3m.primitives.data_preprocessing.do_nothing.DSBOX",
                "name":"DSBox do-nothing primitive",
                "digest":"18b15beb05cb01db08b2761e4ff751b0205b8ba511758ebd188e1314b21ccc7c"
            },
            "arguments":{
                "inputs":{
                    "type":"CONTAINER",
                    "data":"steps.9.produce"
                }
            },
            "outputs":[
                {
                    "id":"produce"
                }
            ]
        },
        {
            "type":"PRIMITIVE",
            "primitive":{
                "id":"4503a4c6-42f7-45a1-a1d4-ed69699cf5e1",
                "version":"0.4.0",
                "python_path":"d3m.primitives.data_transformation.extract_columns_by_semantic_types.Common",
                "name":"Extracts columns by semantic type",
                "digest":"591d3ee40b266bda04fa345aeea7b56d81db182fb144cde164e02be019a05f10"
            },
            "arguments":{
                "inputs":{
                    "type":"CONTAINER",
                    "data":"steps.2.produce"
                }
            },
            "outputs":[
                {
                    "id":"produce"
                }
            ],
            "hyperparams":{
                "semantic_types":{
                    "type":"VALUE",
                    "data":[
                        "https://metadata.datadrivendiscovery.org/types/TrueTarget"
                    ]
                }
            }
        },
        {
            "type":"PRIMITIVE",
            "primitive":{
                "id":"7ddf2fd8-2f7f-4e53-96a7-0d9f5aeecf93",
                "version":"1.5.3",
                "python_path":"d3m.primitives.data_transformation.to_numeric.DSBOX",
                "name":"ISI DSBox To Numeric DataFrame",
                "digest":"18d6dd82e165ca0c5313c5aa97386ba0215a88aa1016a9ca1924248800c1c156"
            },
            "arguments":{
                "inputs":{
                    "type":"CONTAINER",
                    "data":"steps.11.produce"
                }
            },
            "outputs":[
                {
                    "id":"produce"
                }
            ],
            "hyperparams":{
                "drop_non_numeric_columns":{
                    "type":"VALUE",
                    "data":false
                }
            }
        },
        {
            "type":"PRIMITIVE",
            "primitive":{
                "id":"dsbox-featurizer-do-nothing",
                "version":"1.5.3",
                "python_path":"d3m.primitives.data_preprocessing.do_nothing.DSBOX",
                "name":"DSBox do-nothing primitive",
                "digest":"18b15beb05cb01db08b2761e4ff751b0205b8ba511758ebd188e1314b21ccc7c"
            },
            "arguments":{
                "inputs":{
                    "type":"CONTAINER",
                    "data":"steps.10.produce"
                }
            },
            "outputs":[
                {
                    "id":"produce"
                }
            ]
        },
        {
            "type":"PRIMITIVE",
            "primitive":{
                "id":"a323b46a-6c15-373e-91b4-20efbd65402f",
                "version":"2019.11.13",
                "python_path":"d3m.primitives.classification.linear_discriminant_analysis.SKlearn",
                "name":"sklearn.discriminant_analysis.LinearDiscriminantAnalysis",
                "digest":"e6d6eda6c3772151e7a5fd0dda878c46ddb9e8743979ecb345c1aeedfed98b31"
            },
            "arguments":{
                "inputs":{
                    "type":"CONTAINER",
                    "data":"steps.13.produce"
                },
                "outputs":{
                    "type":"CONTAINER",
                    "data":"steps.12.produce"
                }
            },
            "outputs":[
                {
                    "id":"produce"
                }
            ],
            "hyperparams":{
                "add_index_columns":{
                    "type":"VALUE",
                    "data":true
                },
                "return_result":{
                    "type":"VALUE",
                    "data":"new"
                },
                "use_semantic_types":{
                    "type":"VALUE",
                    "data":true
                }
            }
        },
        {
            "type":"PRIMITIVE",
            "primitive":{
                "id":"90e7b335-5af0-35ad-932c-9c771fe84693",
                "version":"2019.11.13",
                "python_path":"d3m.primitives.classification.nearest_centroid.SKlearn",
                "name":"sklearn.neighbors.nearest_centroid.NearestCentroid",
                "digest":"bf80fda9ccdcea59d73af41914cb6d918f000312ebe1dd90b04a5bce15894c5a"
            },
            "arguments":{
                "inputs":{
                    "type":"CONTAINER",
                    "data":"steps.13.produce"
                },
                "outputs":{
                    "type":"CONTAINER",
                    "data":"steps.12.produce"
                }
            },
            "outputs":[
                {
                    "id":"produce"
                }
            ],
            "hyperparams":{
                "add_index_columns":{
                    "type":"VALUE",
                    "data":true
                },
                "return_result":{
                    "type":"VALUE",
                    "data":"new"
                },
                "use_semantic_types":{
                    "type":"VALUE",
                    "data":true
                }
            }
        },
        {
            "type":"PRIMITIVE",
            "primitive":{
                "id":"b9c81b40-8ed1-3b23-80cf-0d6fe6863962",
                "version":"2019.11.13",
                "python_path":"d3m.primitives.classification.logistic_regression.SKlearn",
                "name":"sklearn.linear_model.logistic.LogisticRegression",
                "digest":"39f6c25fff2fb011308408e85c7527345422a797648be66f9b29f67cde1e3770"
            },
            "arguments":{
                "inputs":{
                    "type":"CONTAINER",
                    "data":"steps.13.produce"
                },
                "outputs":{
                    "type":"CONTAINER",
                    "data":"steps.12.produce"
                }
            },
            "outputs":[
                {
                    "id":"produce"
                }
            ],
            "hyperparams":{
                "add_index_columns":{
                    "type":"VALUE",
                    "data":true
                },
                "return_result":{
                    "type":"VALUE",
                    "data":"new"
                },
                "use_semantic_types":{
                    "type":"VALUE",
                    "data":true
                }
            }
        },
        {
            "type":"PRIMITIVE",
            "primitive":{
                "id":"dsbox-vertical-concat",
                "version":"1.5.3",
                "python_path":"d3m.primitives.data_preprocessing.vertical_concatenate.DSBOX",
                "name":"DSBox vertically concat",
                "digest":"bbdba9747aeb64ca45a2588213ed62ab512badb71cb58303e807695ed69cf618"
            },
            "arguments":{
                "inputs":{
                    "type":"CONTAINER",
                    "data":[
                        "steps.14.produce",
                        "steps.15.produce",
                        "steps.16.produce"
                    ]
                }
            },
            "outputs":[
                {
                    "id":"produce"
                }
            ]
        },
        {
            "type":"PRIMITIVE",
            "primitive":{
                "id":"dsbox-ensemble-voting",
                "version":"1.5.3",
                "python_path":"d3m.primitives.classification.ensemble_voting.DSBOX",
                "name":"DSBox ensemble voting",
                "digest":"3268cd55cd889382b0d5cb0c1e2a1242e62996108b0b1c2b7c74e51cc83d1c37"
            },
            "arguments":{
                "inputs":{
                    "type":"CONTAINER",
                    "data":"steps.17.produce"
                }
            },
            "outputs":[
                {
                    "id":"produce"
                }
            ]
        }
    ],
    "name":"default_classification_template:140513388575768",
    "description":"",
    "digest":"49c6b7595ab9af0d8834644972adb6c19207c36d2f6e7136e1670ce00c83cae0"
}